{
  "project_info": {
    "project_number": "438692490008",
    "firebase_url": "https://hcidemo-fba5c.firebaseio.com",
    "project_id": "hcidemo-fba5c",
    "storage_bucket": "hcidemo-fba5c.appspot.com"
  },
  "client": [
    {
      "client_info": {
        "mobilesdk_app_id": "1:438692490008:android:74c431e76bb506a0",
        "android_client_info": {
          "package_name": "day03.locnlg.a"
        }
      },
      "oauth_client": [
        {
          "client_id": "438692490008-9lu01o1u38q55kthkpbdvt3ii87v6nps.apps.googleusercontent.com",
          "client_type": 1,
          "android_info": {
            "package_name": "day03.locnlg.a",
            "certificate_hash": "d4f3b45c164ec80d8ee6c3e12ba0ee8a33f80cec"
          }
        },
        {
          "client_id": "438692490008-6ce3elpbjefcood4bq6ijopdcsmmfbte.apps.googleusercontent.com",
          "client_type": 3
        }
      ],
      "api_key": [
        {
          "current_key": "AIzaSyAtgnoCJAnEarXW7_rVva33xmsNRu42aAY"
        }
      ],
      "services": {
        "analytics_service": {
          "status": 1
        },
        "appinvite_service": {
          "status": 2,
          "other_platform_oauth_client": [
            {
              "client_id": "438692490008-6ce3elpbjefcood4bq6ijopdcsmmfbte.apps.googleusercontent.com",
              "client_type": 3
            }
          ]
        },
        "ads_service": {
          "status": 2
        }
      }
    }
  ],
  "configuration_version": "1"
}